{
  "type": "service_account",
  "project_id": "jungh-1131-1131",
  "private_key_id": "92e23d331383941872d3bca18dd83b6a3b27bb59",
  "private_key": "-----BEGIN PRIVATE KEY-----\nMIIEvAIBADANBgkqhkiG9w0BAQEFAASCBKYwggSiAgEAAoIBAQDHeLV3zqb2vaZm\nHOjMJaa2ydLpvfM4+2TfXwNyYsTazJdD8157giEMpDLu03vmH0APplJdvcpu1iEH\n/bQG6/1P5amdIKu80SPTix2qhnxLEbUxAGVgS8EF2DUf43lj+p4s2GIISI5Bz6no\nWGTQqjecM8fkl/ysy1hrR1OtOJ5CwwwEf719ABfwLCntd9JT3Au6mX2Ps8mtBc5l\nuOZqELMn6XTrlg/ogD2Q0gToL7axgMthVGl+msv8LLGDSCRjXPnD/7uZwG69Dbak\nkn2pm1gGCqYSh3t9NYkZjvsRL+ZYiCiKySSFBnrihsoe7qtHxZl9HAqRmf9kzIEO\n1C+imnlTAgMBAAECggEAdCq5TE++bt4eBUP608FtqPA688Oa3WmS4n98C2a4DFCw\nG3OlZ7puMuWBgBMMCgXTEgoj19ILDaeIzxWSfaF8AcbXk9mOCsWl3rIbEc+GnVVv\nt1zqrT0Q6a1zquGYNYCkE6vk07wllPAynEy2Uct/3WlOlbNqBNvb34ZHlg7uJCRZ\ndQJ2WJX16qwgLxjCPRzFUyO1W3KeKEwW7qtyMjqHqRUO6T8mIquWbHfVideagS/y\n9C4Lm226+XFuQwSfbJ92w203AfDbc06AXJZIipdv5wWmIjjW+kpv2gjwkaC3X3rc\nfrC/BWbxz1HvM83W+w55gCKuD/v+kGR8furw2pkTiQKBgQDzNt1an4oyVpFFY8KX\nEnRZPciMAp0kZzc9BsIpNVjQvOS5w1Xv6tT5WFK44S9VgUB4XOopqHnpX7i3vtiF\nkMQivER+rg03YMYRbQRq9/0nDUD7+A+FZ2bHL8Jogw6+DF4lqEEfrNN+C9ASRZId\nplNe5mKP1pwkOfdKPnZbGBJitQKBgQDR9SlPJSWUWy3n3QAYyYY2eccL/0nJApWD\ncrUwXDMenoa2kT2PaHxT5Tr0oe8Xqet5pOOFG19+6WWvKj290NO4qPTbp/oJZM/c\nW4//Rt7QPekADyPZfaX2WuFGKUTan/pPBDiGcXgqfnW/QzCnrREn+MPOs8K9jTx8\n+GLt6w7I5wKBgBhIHvtgODzkVaaW2iOZDRKnz3DjBetPfr1SAmp40AAvC6rcLKVC\nTbcDMWcR3FbuC5C4vgwgrOM20ktN+3ICTQKmxzPajqk7uSqeNrWzQov2j8lYL7yC\n4Uj7pK4of31L4M5jqPTPnWHVLhXU6kyZgXNVDvwLUhVv0BeSeuCHW7aNAoGAD1oV\nwyu8K7TfDm0ibK2PmrwcycvI4WHG/O2OQhL7yeldgEvubGX/cUL5pJmSmfBav3JH\nEJyHxwfZ34z/Jrn2QTJZdRY7OiSc7kfjp47PC/r65n406No/IFxUzISH/FRmQRDV\n8T6qwrCse2e2TwxgjMOrzZlnS+Tf32NqGGtvkVECgYB38qBDzuqDQIQTc2F1bPqF\nMEsPAj52m6r8JBclYHILDMlI8MKHGjqQO8zXb4TYzUSTHLfjQ6f3aHGig+CwbIb1\n6BPwLpX7AcpbQYCSsPAm1LZQAWeKGPHOp8tXJd5UR/OtwC3BA8qogYSA4bysKLT7\nX9/RKItJnDT3Mg8nOBYQzQ==\n-----END PRIVATE KEY-----\n",
  "client_email": "867067161628-compute@developer.gserviceaccount.com",
  "client_id": "104645040477328811144",
  "auth_uri": "https://accounts.google.com/o/oauth2/auth",
  "token_uri": "https://accounts.google.com/o/oauth2/token",
  "auth_provider_x509_cert_url": "https://www.googleapis.com/oauth2/v1/certs",
  "client_x509_cert_url": "https://www.googleapis.com/robot/v1/metadata/x509/867067161628-compute%40developer.gserviceaccount.com"
}
